PWD Y:/GitHub/learning-latex
INPUT C:/Users/ASUS/AppData/Local/MiKTeX/2.9/miktex/data/le/pdftex/pdflatex.fmt
INPUT notes.tex
OUTPUT notes.log
INPUT C:/Program Files/MiKTeX/tex/latex/base/article.cls
INPUT C:/Program Files/MiKTeX/tex/latex/base/article.cls
INPUT C:/Program Files/MiKTeX/tex/latex/base/size10.clo
INPUT C:/Program Files/MiKTeX/tex/latex/base/size10.clo
INPUT notes.aux
INPUT notes.aux
OUTPUT notes.aux
OUTPUT notes.pdf
INPUT C:/Users/ASUS/AppData/Local/MiKTeX/2.9/pdftex/config/pdftex.map
INPUT notes.aux
INPUT C:/Program Files/MiKTeX/fonts/type1/public/amsfonts/cm/cmex10.pfb
INPUT C:/Program Files/MiKTeX/fonts/type1/public/amsfonts/cm/cmex10.pfb
INPUT C:/Program Files/MiKTeX/fonts/type1/public/amsfonts/cm/cmmi10.pfb
INPUT C:/Program Files/MiKTeX/fonts/type1/public/amsfonts/cm/cmmi10.pfb
INPUT C:/Program Files/MiKTeX/fonts/type1/public/amsfonts/cm/cmmi7.pfb
INPUT C:/Program Files/MiKTeX/fonts/type1/public/amsfonts/cm/cmmi7.pfb
INPUT C:/Program Files/MiKTeX/fonts/type1/public/amsfonts/cm/cmr10.pfb
INPUT C:/Program Files/MiKTeX/fonts/type1/public/amsfonts/cm/cmr10.pfb
INPUT C:/Program Files/MiKTeX/fonts/type1/public/amsfonts/cm/cmr5.pfb
INPUT C:/Program Files/MiKTeX/fonts/type1/public/amsfonts/cm/cmr5.pfb
INPUT C:/Program Files/MiKTeX/fonts/type1/public/amsfonts/cm/cmr7.pfb
INPUT C:/Program Files/MiKTeX/fonts/type1/public/amsfonts/cm/cmr7.pfb
INPUT C:/Program Files/MiKTeX/fonts/type1/public/amsfonts/cm/cmsy10.pfb
INPUT C:/Program Files/MiKTeX/fonts/type1/public/amsfonts/cm/cmsy10.pfb
