\relax 
\@writefile{toc}{\contentsline {section}{\numberline {1}Starting a LaTeX}{1}}
\@writefile{toc}{\contentsline {section}{\numberline {2}Useful Packages}{1}}
\@writefile{toc}{\contentsline {section}{\numberline {3}Initilization}{1}}
\@writefile{toc}{\contentsline {section}{\numberline {4}Formatting}{1}}
\@writefile{toc}{\contentsline {section}{\numberline {5}Tables}{2}}
\@writefile{toc}{\contentsline {section}{\numberline {6}Working with Restricted Characters}{2}}
