# Fdb version 3
["pdflatex"] 1528553551 "notes.tex" "notes.pdf" "notes" 1528553570
  "C:/Program Files/MiKTeX/fonts/tfm/public/cm/cmbx10.tfm" 1136765053 1328 c834bbb027764024c09d3d2bf908b5f0 ""
  "C:/Program Files/MiKTeX/fonts/tfm/public/cm/cmbx12.tfm" 1136765053 1324 c910af8c371558dc20f2d7822f66fe64 ""
  "C:/Program Files/MiKTeX/fonts/tfm/public/cm/cmmi12.tfm" 1136765053 1524 4414a8315f39513458b80dfc63bff03a ""
  "C:/Program Files/MiKTeX/fonts/tfm/public/cm/cmmi6.tfm" 1136765053 1512 f21f83efb36853c0b70002322c1ab3ad ""
  "C:/Program Files/MiKTeX/fonts/tfm/public/cm/cmmi8.tfm" 1136765053 1520 eccf95517727cb11801f4f1aee3a21b4 ""
  "C:/Program Files/MiKTeX/fonts/tfm/public/cm/cmr12.tfm" 1136765053 1288 655e228510b4c2a1abe905c368440826 ""
  "C:/Program Files/MiKTeX/fonts/tfm/public/cm/cmr17.tfm" 1136765053 1292 296a67155bdbfc32aa9c636f21e91433 ""
  "C:/Program Files/MiKTeX/fonts/tfm/public/cm/cmr6.tfm" 1136765053 1300 b62933e007d01cfd073f79b963c01526 ""
  "C:/Program Files/MiKTeX/fonts/tfm/public/cm/cmr8.tfm" 1136765053 1292 21c1c5bfeaebccffdb478fd231a0997d ""
  "C:/Program Files/MiKTeX/fonts/tfm/public/cm/cmsy10.tfm" 1136765053 1124 6c73e740cf17375f03eec0ee63599741 ""
  "C:/Program Files/MiKTeX/fonts/tfm/public/cm/cmsy6.tfm" 1136765053 1116 933a60c408fc0a863a92debe84b2d294 ""
  "C:/Program Files/MiKTeX/fonts/tfm/public/cm/cmsy8.tfm" 1136765053 1120 8b7d695260f3cff42e636090a8002094 ""
  "C:/Program Files/MiKTeX/fonts/type1/public/amsfonts/cm/cmbx10.pfb" 1247596666 34811 78b52f49e893bcba91bd7581cdc144c0 ""
  "C:/Program Files/MiKTeX/fonts/type1/public/amsfonts/cm/cmbx12.pfb" 1247596666 32080 340ef9bf63678554ee606688e7b5339d ""
  "C:/Program Files/MiKTeX/fonts/type1/public/amsfonts/cm/cmr10.pfb" 1247596667 35752 024fb6c41858982481f6968b5fc26508 ""
  "C:/Program Files/MiKTeX/fonts/type1/public/amsfonts/cm/cmr12.pfb" 1247596667 32722 d7379af29a190c3f453aba36302ff5a9 ""
  "C:/Program Files/MiKTeX/fonts/type1/public/amsfonts/cm/cmr17.pfb" 1247596666 32362 bc3f3eec7ab7d65fe700963d4017d32c ""
  "C:/Program Files/MiKTeX/tex/latex/base/article.cls" 1527456798 19823 fcbc01552b07b608574cbf8e1977e0c0 ""
  "C:/Program Files/MiKTeX/tex/latex/base/size10.clo" 1527456798 8294 b0f177401f895563eb19304d2389582d ""
  "C:/Users/ASUS/AppData/Local/MiKTeX/2.9/miktex/data/le/pdftex/pdflatex.fmt" 1528125838 4149270 07551d3e484a296da7a769ca3852b9a6 ""
  "C:/Users/ASUS/AppData/Local/MiKTeX/2.9/pdftex/config/pdftex.map" 1528111771 80423 3cfba73105275d3ad410701d89fbdf7a ""
  "notes.aux" 1528553551 248 22a1e2e72b8f2fb2ac17bd87e385305a ""
  "notes.tex" 1528553550 692 224ad14a7def6913b59d5d3b943f20d9 ""
  "notes.toc" 1528553551 185 396433d988122308de5e2c52170bd1ba ""
  (generated)
  "notes.aux"
  "notes.toc"
  "notes.pdf"
  "notes.log"
