\relax 
\@writefile{toc}{\contentsline {section}{\numberline {1}Linear Functions}{2}}
\@writefile{toc}{\contentsline {subsection}{\numberline {1.1}Zero Slope}{2}}
\@writefile{toc}{\contentsline {subsection}{\numberline {1.2}Positive Slope}{2}}
